…
Now I can make a search for next Tuesday Morning (as of writing this):

``` r
next_tuesday <- bahn_search(
  from = wi$id[1],
  to = adam$id[1],
  start = "2024-01-30T05:00:00",
  end =  "2024-01-30T19:00:00"
)
next_tuesday
#> # A tibble: 28 × 6
#>    id         duration             price changes start              
#>    <chr>      <Duration>           <dbl>   <int> <dttm>             
#>  1 4934becd_3 21720s (~6.03 hours)  93.4       4 2024-01-30 05:27:00
#>  2 a2c0662a_3 18600s (~5.17 hours) 113.        2 2024-01-30 06:19:00
#>  3 bfacedce_3 21960s (~6.1 hours)  103.        4 2024-01-30 06:29:00
#>  4 6ee9a9d4_3 23760s (~6.6 hours)   67.4       5 2024-01-30 06:29:00
#>  5 2fc08538_3 21960s (~6.1 hours)  113.        5 2024-01-30 06:59:00
#>  6 86175a2c_3 21600s (~6 hours)     93.4       3 2024-01-30 07:29:00
#>  7 a21cc91e_3 18600s (~5.17 hours) 113.        2 2024-01-30 08:19:00
#>  8 e62269ec_3 21960s (~6.1 hours)  103.        4 2024-01-30 08:29:00
#>  9 e7e3e886_3 23760s (~6.6 hours)   71.4       6 2024-01-30 08:29:00
#> 10 5466ce48_3 20760s (~5.77 hours) 103.        5 2024-01-30 08:49:00
#> # ℹ 18 more rows
#> # ℹ 1 more variable: end <dttm>
```
…
